@startuml
actor User

title Outgoing call

box "UE"
participant UE_GUI
participant UE_Core
end box

opt SIB timestamp invalid
	BTS --> UE_Core: SIB Broadcast
activate UE_Core
end
deactivate UE_Core
group User action
par 
User -> UE_GUI:EnterPhoneNumber
end


User -> UE_GUI:PressCallButton
activate UE_GUI


UE_GUI->UE_Core:OnCallButtonClick
activate UE_Core 
deactivate UE_GUI

actor BTS
opt phonenumber not empty

note over UE_Core, BTS
Attach procedure 
endnote
par
UE_Core --> BTS: Key|User Phone Number
end

UE_Core --> BTS:Attach Request 
alt succesfull case
BTS -->BTS:  User registration
BTS --> UE_Core : Attach Response with **success**
else Attach rejected
BTS --> UE_Core : Attach Response with failure code
UE_Core -->UE_Core : Log failure
opt 
UE_Core -->UE_Core : Re-enter User ID

opt 
UE_Core -->UE_Core : Re-read SIB

end
end
end

note over  UE_Core, BTS
Call request
endnote
UE_Core->BTS:CallUser(PhoneNumber)


end
@end


